com/jannetta/chaosgenome/controller/ConvertFile.class
com/jannetta/chaosgenome/model/GLCMTableModel.class
com/jannetta/chaosgenome/view/ATCGconvert$1.class
com/jannetta/chaosgenome/view/ATCGconvert.class
com/jannetta/chaosgenome/view/MainMenuBar.class
com/jannetta/chaosgenome/view/DrawPanel.class
com/jannetta/chaosgenome/model/Codons.class
com/jannetta/chaosgenome/view/TableRenderer.class
com/jannetta/chaosgenome/view/GLCMTable.class
com/jannetta/chaosgenome/view/OptionPanel.class
com/jannetta/chaosgenome/view/PlainDrawPanel.class
com/jannetta/chaosgenome/controller/VertexGen.class
com/jannetta/chaosgenome/model/GLCM.class
com/jannetta/chaosgenome/view/MainWindow.class
com/jannetta/chaosgenome/view/OptionPanel$1.class
com/jannetta/chaosgenome/controller/DrawMatrix.class
com/jannetta/chaosgenome/model/AminoAcids.class
com/jannetta/chaosgenome/model/Coding.class
com/jannetta/chaosgenome/model/Coord.class
com/jannetta/chaosgenome/controller/Helpers.class
